{
	"results": [
		{
			"id": 1,
			"image": "/server/60x45.png",
			"place": "Hotel name",
			"dep": "1437388200",
			"arr": "1437399000",
			"price": "$200"
		},
		{
			"id": 2,
			"image": "/server/60x45.png",
			"place": "Hotel name",
			"dep": "1437388200",
			"arr": "1437399000",
			"price": "$200"
		},
		{
			"id": 3,
			"image": "/server/60x45.png",
			"place": "Hotel name",
			"dep": "1437388200",
			"arr": "1437399000",
			"price": "$200"
		},
		{
			"id": 4,
			"image": "/server/60x45.png",
			"place": "Hotel name",
			"dep": "1437388200",
			"arr": "1437399000",
			"price": "$200"
		},
		{
			"id": 5,
			"image": "/server/60x45.png",
			"place": "Hotel name",
			"dep": "1437388200",
			"arr": "1437399000",
			"price": "$200"
		}
	]
}