<svg>
	<circle fill="#F88648" stroke="#CA6128" cx="14" cy="14" r="14"/>
	<rect x="12.763" y="6.862" fill="#FFFFFF" width="2.475" height="15.167"/>
	<rect x="6.417" y="13.208" fill="#FFFFFF" width="15.167" height="2.475"/>
</svg>
